{
  "vimeo": [
    "https://player.vimeo.com/video/585612815",
    "https://player.vimeo.com/video/585612500",
    "https://player.vimeo.com/video/387716631",
    "https://player.vimeo.com/video/390559963",
    "https://player.vimeo.com/video/585612079",
    "https://player.vimeo.com/video/585610872",
    "https://player.vimeo.com/video/585611301",
    "https://player.vimeo.com/video/585611515",
    "https://player.vimeo.com/video/585611735",
    "https://player.vimeo.com/video/585611945",
    "https://player.vimeo.com/video/585611047",
    "https://player.vimeo.com/video/585612042",
    "https://player.vimeo.com/video/585613555",
    "https://player.vimeo.com/video/585613763",
    "https://player.vimeo.com/video/387716587",
    "https://player.vimeo.com/video/387716604",
    "https://player.vimeo.com/video/387716697",
    "https://player.vimeo.com/video/387716764",
    "https://player.vimeo.com/video/387716724",
    "https://player.vimeo.com/video/387716748",
    "https://player.vimeo.com/video/387716564",
    "https://player.vimeo.com/video/387716528"
  ],
  "dreams": [
    "https://player.vimeo.com/video/585612905",
    "https://player.vimeo.com/video/585615635",
    "https://player.vimeo.com/video/585615311",
    "https://player.vimeo.com/video/585615053",
    "https://player.vimeo.com/video/585614729",
    "https://player.vimeo.com/video/585614534",
    "https://player.vimeo.com/video/585614360"
  ]
}
